…
# 8 Q 9.26


```r
pacgeese <- read_excel("/home/collindabbieri/Documents/AppliedRegressionAnalysis/Dataxls/Excel/PACGEESE.XLS")
print(pacgeese)
```

```
## # A tibble: 464 x 4
##    FLIGHT ALTITUDE LATERAL RESPONSE
##     <dbl>    <dbl>   <dbl>    <dbl>
##  1      1     0.91    4.99        1
##  2      2     0.91    8.21        1
##  3      3     0.91    3.38        1
##  4      4     9.14   21.1         0
##  5      5     1.52    6.6         1
##  6      6     0.91    3.38        1
##  7      7     3.05    0.16        1
##  8      8     6.1     3.38        1
##  9      9     3.05    6.6         1
## 10     10    12.2     6.6         1
## # … with 454 more rows
```
…
